<svg width="5295" height="1143" viewBox="0 0 5295 1143" fill="none" xmlns="http://www.w3.org/2000/svg">
<path d="M388.834 188.548C315.545 188.548 256.307 218.927 210.739 279.875C165.36 340.632 142.576 439.933 142.576 577.396C142.576 726.442 165.93 829.73 212.447 886.69C258.965 943.84 316.684 972.32 385.416 972.32C433.453 972.32 475.793 959.409 512.248 933.397C548.702 907.575 577.752 866.374 599.397 809.984C621.042 753.593 631.674 679.735 631.674 588.029C631.674 487.969 621.611 409.934 601.295 353.923C580.979 297.722 552.12 256.141 514.526 228.99C476.932 202.219 434.972 188.548 388.834 188.548ZM379.72 145.259C449.971 145.259 515.855 163.866 577.182 200.89C638.699 237.914 686.736 289.558 721.481 355.821C756.227 422.085 773.695 496.893 773.695 579.865C773.695 662.837 756.227 737.834 721.291 804.667C686.356 871.5 638.319 923.714 577.372 961.118C516.235 998.522 451.68 1017.32 383.328 1017.32C316.495 1017.32 253.838 999.091 195.169 962.257C136.501 925.613 89.4135 873.209 54.0982 805.047C18.2133 736.695 0.555664 660.938 0.555664 577.966C0.555664 496.133 17.8336 422.085 52.0097 356.201C86.3756 290.317 133.463 238.673 193.081 201.27C253.079 163.866 315.165 145.259 379.72 145.259Z" fill="#0057B7"/>
<path d="M821.542 468.017H1081.28V506.37C1046.72 507.13 1024.7 510.168 1015.02 515.674C1005.33 521.18 1000.59 528.964 1000.59 539.027C1000.59 547.381 1002.49 555.546 1006.28 563.71L1146.41 875.282L1273.81 573.203C1275.7 568.077 1276.65 562.761 1276.65 557.444C1276.65 530.104 1249.69 513.016 1195.77 506.18V467.827H1414.31V506.18C1392.09 508.459 1374.44 514.534 1361.33 524.218C1348.04 533.901 1337.98 547.192 1330.96 563.71L1137.48 1011.99H1106.91L899.198 551.559C891.603 535.04 882.49 523.458 871.857 517.003C861.225 510.357 844.327 506.94 821.542 506.56V468.017Z" fill="#0057B7"/>
<path d="M1552.71 695.671H1781.5C1794.98 695.671 1805.43 691.114 1813.02 682.001C1820.61 672.887 1824.41 657.128 1824.41 634.914C1824.41 593.523 1811.5 558.397 1785.87 529.538C1760.05 500.678 1729.86 486.058 1694.92 486.058C1655.81 486.058 1622.58 503.526 1595.43 538.461C1568.09 573.587 1553.85 625.8 1552.71 695.671ZM1930.74 735.733H1552.71C1554.61 816.047 1569.61 872.817 1597.9 905.854C1630.18 943.068 1671.38 961.675 1721.31 961.675C1794.98 961.675 1854.03 919.715 1898.84 835.983L1935.48 851.742C1880.61 958.447 1801.44 1011.8 1697.77 1011.8C1627.14 1011.8 1567.71 986.168 1519.3 935.094C1471.07 884.02 1446.96 818.705 1446.96 738.961C1446.96 653.331 1470.69 584.219 1518.35 531.246C1565.81 478.463 1624.29 452.072 1693.78 452.072C1744.86 452.072 1788.91 465.362 1826.12 491.564C1863.33 517.766 1891.25 555.739 1910.04 604.915C1923.14 639.661 1929.98 683.14 1930.74 735.733Z" fill="#0057B7"/>
<path d="M1975.17 468.022L2165.04 458.528V672.129C2185.36 601.878 2209.85 548.715 2238.33 512.64C2267 476.566 2302.32 458.528 2344.28 458.528C2372.76 458.528 2395.54 467.262 2412.82 484.73C2429.91 502.198 2438.45 525.551 2438.45 554.981C2438.45 578.714 2432.75 597.131 2421.17 610.232C2409.78 623.333 2395.35 629.978 2378.07 629.978C2361.17 629.978 2347.5 624.282 2337.25 613.08C2327 601.878 2321.68 586.689 2321.68 567.512C2321.68 555.171 2324.72 543.399 2330.61 532.577C2336.3 522.703 2338.96 517.007 2338.96 515.109C2338.96 509.603 2335.35 506.755 2328.33 506.755C2312.95 506.755 2295.48 515.868 2275.92 533.716C2248.77 558.968 2228.08 593.524 2213.27 637.383C2190.67 705.735 2179.47 760.417 2179.47 801.428V914.589C2179.47 927.31 2184.03 937.183 2192.95 944.019C2201.88 950.664 2217.45 954.082 2239.09 954.082H2306.11V996.422H1978.21V954.082H2030.62C2048.27 954.082 2061.56 950.664 2070.68 943.639C2079.6 936.614 2084.16 928.26 2084.16 918.576V581.942C2084.16 556.31 2078.65 537.703 2067.83 525.931C2057.01 514.159 2041.25 508.274 2021.12 508.274H1975.17V468.022Z" fill="#0057B7"/>
<path d="M2840.02 715.607C2744.71 728.708 2677.11 750.163 2637.24 779.782C2607.62 802.377 2592.81 834.274 2592.81 875.475C2592.81 904.335 2600.41 926.929 2615.79 943.448C2631.17 959.776 2651.29 967.941 2676.16 967.941C2720.4 967.941 2758.95 951.232 2791.41 917.626C2823.88 884.019 2840.21 841.869 2840.21 791.174V715.607H2840.02ZM3024.95 938.132L3045.27 969.65C3017.93 997.75 2987.36 1011.99 2953.94 1011.99C2928.5 1011.99 2907.04 1004.96 2889.39 991.104C2871.92 977.244 2856.54 952.751 2843.44 917.816C2807.74 955.41 2776.41 980.472 2749.26 993.003C2722.3 1005.53 2689.65 1011.8 2651.86 1011.8C2597.75 1011.8 2556.55 1000.03 2528.45 976.865C2500.35 953.511 2486.11 923.702 2486.11 887.247C2486.11 832.376 2518.39 786.808 2582.75 750.543C2647.12 714.278 2732.94 690.165 2840.02 678.014V598.269C2840.02 569.6 2828.63 545.297 2805.65 524.981C2782.68 504.665 2753.63 494.602 2718.32 494.602C2685.66 494.602 2657.37 501.437 2633.82 514.728C2616.93 524.981 2608.57 534.854 2608.57 544.537C2608.57 550.233 2613.13 558.967 2622.05 570.929C2632.88 585.928 2638.38 599.219 2638.38 610.991C2638.38 627.889 2632.88 641.749 2622.05 652.382C2611.23 663.204 2596.8 668.52 2579.14 668.52C2560.35 668.52 2544.78 662.065 2532.06 649.344C2519.52 636.623 2513.26 620.294 2513.26 600.358C2513.26 563.144 2534.14 529.158 2576.1 498.399C2618.07 467.641 2672.94 452.072 2740.91 452.072C2803.57 452.072 2851.6 465.742 2884.64 492.703C2917.68 520.044 2934.19 553.271 2934.19 592.384V881.172C2934.19 906.614 2938.37 925.41 2946.54 937.562C2954.89 949.903 2965.52 956.169 2978.62 956.169C2993.43 956.169 3008.62 950.093 3024.95 938.132Z" fill="#0057B7"/>
<path d="M3279.57 153.233V918.397C3279.57 929.03 3282.79 937.004 3289.25 942.7C3298.55 950.295 3310.13 953.902 3323.62 953.902H3379.44V996.243H3080.21V953.902H3133.18C3150.46 953.902 3163.37 949.725 3171.91 941.561C3180.27 933.397 3184.63 921.625 3184.63 906.626V264.115C3184.63 245.318 3179.51 231.648 3169.44 222.914C3155.58 210.763 3138.49 204.877 3118.18 204.877H3070.71V162.726L3279.57 153.233Z" fill="#0057B7"/>
<path d="M3614.11 153.233V918.397C3614.11 929.03 3617.34 937.004 3623.8 942.7C3633.1 950.295 3644.68 953.902 3658.16 953.902H3713.98V996.243H3414.75V953.902H3467.73C3485 953.902 3497.92 949.725 3506.27 941.561C3514.81 933.397 3518.99 921.625 3518.99 906.626V264.115C3518.99 245.318 3513.86 231.648 3503.8 222.914C3489.75 210.763 3472.85 204.877 3452.54 204.877H3405.26V162.726L3614.11 153.233Z" fill="#0057B7"/>
<path d="M5225.32 138.594C5191.33 138.594 5163.8 111.063 5163.8 77.0767C5163.8 43.0905 5191.33 15.5598 5225.32 15.5598C5259.3 15.5598 5286.83 43.0905 5286.83 77.0767C5287.02 111.063 5259.3 138.594 5225.32 138.594ZM5225.32 7.39551C5186.77 7.39551 5155.45 38.5337 5155.45 77.0767C5155.45 115.62 5186.77 146.948 5225.32 146.948C5263.86 146.948 5295 115.81 5295 77.0767C5295 38.5337 5263.86 7.39551 5225.32 7.39551Z" fill="#0057B7"/>
<path d="M5243.93 87.3533L5259.11 92.1C5256.84 100.454 5253.04 106.91 5247.53 110.897C5242.22 115.074 5235.38 117.162 5227.03 117.162C5216.77 117.162 5208.23 113.555 5201.77 106.53C5195.13 99.5048 5191.9 89.8216 5191.9 77.6701C5191.9 64.7591 5195.13 54.6961 5201.96 47.6711C5208.61 40.4561 5217.34 36.8486 5228.17 36.8486C5237.66 36.8486 5245.25 39.6966 5251.14 45.2028C5254.75 48.4305 5257.41 53.3671 5259.11 59.4428L5243.55 63.0503C5242.6 59.0631 5240.7 55.8353 5237.85 53.5569C5234.81 51.2785 5231.39 50.1393 5227.22 50.1393C5221.52 50.1393 5216.77 52.2279 5213.17 56.4049C5209.56 60.3922 5207.85 67.0375 5207.85 76.341C5207.85 86.2141 5209.56 93.0493 5213.17 97.2264C5216.77 101.403 5221.33 103.492 5226.84 103.492C5231.01 103.492 5234.62 102.163 5237.47 99.6947C5240.51 97.2264 5242.6 93.0493 5243.93 87.3533Z" fill="#0057B7"/>
<path d="M4789.77 204.293C4755.03 204.293 4724.65 213.217 4698.26 231.255C4671.87 249.292 4651.36 275.873 4637.12 310.809C4622.88 345.934 4615.66 386.756 4615.66 433.463C4615.66 479.791 4622.69 520.232 4636.74 554.788C4650.79 589.534 4670.92 615.925 4697.12 634.343C4723.32 652.76 4754.27 661.873 4789.77 661.873C4843.51 661.873 4886.22 641.557 4917.93 601.116C4949.83 560.674 4965.59 504.663 4965.59 433.273C4965.59 360.934 4949.64 304.733 4917.93 264.481C4886.04 224.609 4843.32 204.293 4789.77 204.293Z" fill="#0057B7"/>
<path d="M5142.53 458.529C5140.26 501.819 5132.66 542.26 5118.8 579.664C5102.28 624.283 5078.55 662.636 5047.41 694.724C5016.27 726.621 4979.06 751.304 4935.77 768.392C4892.48 785.48 4843.87 794.024 4789.76 794.024C4736.03 794.024 4687.8 785.29 4644.89 768.012C4601.98 750.545 4564.96 725.862 4533.63 693.585C4502.3 661.307 4478.38 623.334 4462.05 579.285C4445.91 535.235 4437.75 486.629 4437.75 433.467C4437.75 379.924 4445.91 330.559 4462.43 286.13C4478.95 241.511 4502.49 203.348 4533.25 171.83C4564.01 140.122 4601.22 115.819 4644.89 98.7309C4688.56 81.6429 4736.98 73.0988 4789.76 73.0988C4819.95 73.0988 4848.62 76.1367 4875.58 81.6429C4789.76 30.1889 4689.7 0 4582.43 0C4266.87 0 4010.93 255.941 4010.93 571.5C4010.93 887.059 4266.68 1143 4582.43 1143C4897.99 1143 5153.93 887.059 5153.93 571.5C5153.93 532.957 5149.94 495.173 5142.53 458.529Z" fill="#0057B7"/>
</svg>
